He replied / she cried: Text mining and gender roles
…
Demo: Split the text column into word tokens.

# add code here

Your turn: Discover the top 10 most commonly used words in each of Jane Austen’s books.

With stop words:

# add code here

Demo: Let’s do better, without the “stop words”.

stop_words

# A tibble: 1,149 × 2
   word        lexicon
   <chr>       <chr>  
 1 a           SMART  
 2 a's         SMART  
 3 able        SMART  
 4 about       SMART  
 5 above       SMART  
 6 according   SMART  
 7 accordingly SMART  
 8 across      SMART  
 9 actually    SMART  
10 after       SMART  
# ℹ 1,139 more rows
…
# add code here

Demo: Which words have different likelihoods of following “he” or “she” in Jane Austen’s novels?

# add code here

Sentiment analysis

One way to analyze the sentiment of a text is to consider the text as a combination of its individual words and the sentiment content of the whole text as the sum of the sentiment content of the individual words. This isn’t the only way to approach sentiment analysis, but it is an often-used approach, and an approach that naturally takes advantage of the tidy tool ecosystem.1

sentiments <- get_sentiments("afinn")
sentiments

# A tibble: 2,477 × 2
   word       value
   <chr>      <dbl>
 1 abandon       -2
 2 abandoned     -2
 3 abandons      -2
 4 abducted      -2
 5 abduction     -2
 6 abductions    -2
 7 abhor         -3
 8 abhorred      -3
 9 abhorrent     -3
10 abhors        -3
# ℹ 2,467 more rows
…
